[gd_resource type="Resource" load_steps=3 format=2]

[ext_resource path="res://cards/Card.gd" type="Script" id=1]
[ext_resource path="res://assets/sray.png" type="Texture" id=2]

[resource]
script = ExtResource( 1 )
name = "Sugma Ray"
icon = ExtResource( 2 )
text = "Cast a ray of Sugma"
flavor = "Sugma what? Sugma ray!"
cost = 4
args = {
}
effect_path = "ShotEffect.gd"
